{
    "MARKET": {
        "responsible": "tle",
        "table_1": {
            "table_name": "QUANT_work..INDEX_LEVEL",
            "table_update_frequency": "EOM",
            "table_referential": "QUANT_work..INDEX_REFERENTIAL",
            "table_data_dictionary": "None",
            "table_perimeter_field": "index_id",
            "table_perimeter_type": "fixed",
            "table_perimeter": [1, 2, 3, 4, 5, 6, 7, 8, 9, 10, 11, 12, 13, 14, 15,
								 16, 17, 18, 19, 20, 21, 22, 23, 24, 25, 26, 27, 28,
								 29, 30, 31, 32, 33, 34, 35, 36, 37, 38, 39, 40, 41,
								 42, 43, 44, 45, 46, 47, 48, 49, 50, 51, 52, 53, 54,
								 55, 56, 57, 58, 59, 60, 61, 62, 63, 64, 65, 66, 67,
								 68, 69, 70, 71, 72, 73, 74, 75, 76, 77, 78, 79, 80,
								 81, 82, 83, 87, 88, 89, 90, 149, 150],
            "table_field": "value"
        }
    },
    "ERPM_INDICES": {
        "responsible": "ssureau",
        "table_1": {
            "table_name": "QUANT_work..erp_index_indicator",
            "table_update_frequency": "EOM",
            "table_referential": "QUANT_work..INDEX_REFERENTIAL",
            "table_data_dictionary": "QUANT_work..erp_data_dictionary",
            "table_data_dictionary_readable_name": "name",
            "table_perimeter": [1, 2, 3, 4, 5, 6, 7, 8, 9, 10, 11, 12, 14, 16, 17, 18, 19, 20, 21, 22, 24, 25, 26, 27, 28, 29, 30, 31, 32, 33, 34, 35, 36, 37, 38, 39, 40, 41, 42, 43, 44, 45, 46, 47, 48, 49, 50, 51, 52, 53, 54, 55, 56, 57, 76, 77, 78, 79, 80, 81, 82, 83, 85, 86, 87, 149, 150],
            "table_perimeter_field": "index_id",
            "table_perimeter_type": "fixed",
            "table_fields": "value",
            "table_date_field": "date",
            "table_object_field": "index_id",
            "table_indicator_field": "indicator_id"
        },
        "client_output_table": "table_1",
        "client_output_override": "None"
    },
    
     "ERPM_STOCKS": {
         "responsible": "ssureau",
         "table_1": {
             "table_name": "QUANT_work..erp_stock_indicator",
             "table_update_frequency": "EOM",
             "table_referential": "KGR..HISTO_SECURITY_QUANT",
             "table_data_dictionary": "QUANT_work..erp_data_dictionary",
             "table_data_dictionary_readable_name": "name",
             "table_perimeter": "LCXP",
             "table_perimeter_type": "index_static",
             "table_perimeter_field": "security_id",
             "table_fields": "value",
             "table_date_field": "date",
             "table_object_field": "security_id",
             "table_indicator_field": "indicator_id"  
         },
         "table_2": {
         "table_name": "QUANT_work..INDEX_COMPOSITION",
         "table_update_frequency": "EOMp2BD",
         "table_referential": "QUANT_work..INDEX_REFERENTIAL",
         "table_data_dictionary": "None",
         "table_perimeter": [84],
         "table_perimeter_type": "fixed",
         "table_perimeter_field": "index_id",
         "table_fields": "SECURITYRATIO"
         },
         "client_output_table": "table_1",
         "client_output_override": "None"
     },
     
    "BETA_PROFILES_KECH": {
        "responsible": "tle",
        "table_1": {
            "table_name": "QUANT_work..INDEX_LEVEL",
            "table_update_frequency": "EBDOM",
            "table_perimeter_type": "fixed",
            "table_perimeter": [95, 96, 97, 98, 99, 100, 101, 102, 103, 104, 105, 106, 107, 108],
            "table_perimeter_field": "index_id",
            "table_referential": "QUANT_work..INDEX_REFERENTIAL",
            "table_data_dictionary": "None",
            "table_fields": "value"
        },
        "table_2": {
            "table_name": "QUANT_work..INDEX_COMPOSITION",
            "table_update_frequency": "QKECH",
            "table_perimeter_type": "fixed",
            "table_perimeter": [95, 96, 97, 98, 99, 100, 101],
            "table_perimeter_field": "index_id",
            "table_object_field": "security_id",
            "table_indicator_field": "index_id",
            "table_date_field": "DATE",
            "table_referential": "QUANT_work..INDEX_REFERENTIAL",
            "table_data_dictionary": "QUANT_work..INDEX_REFERENTIAL",
            "table_data_dictionary_readable_name": "short_name",
            "table_fields": "SECURITYRATIO"
        },
        "client_output_table": "table_2",
        "client_output_override": "ones"
    },
    
     "BETA_PROFILES_BPE": {
         "responsible": "tle",
         "table_1": {
             "table_name": "QUANT_work..INDEX_LEVEL",
             "table_update_frequency": "EBDOM",
             "table_perimeter_type": "fixed",
             "table_perimeter": [109, 110, 111, 112, 113, 114, 115, 116, 117, 118, 119, 120, 121, 122, 123, 124, 125, 126, 127, 128, 129, 130, 131, 132, 133, 134, 135, 136, 137, 138, 139, 140, 141, 142, 143, 144, 145, 147],
             "table_perimeter_field": "index_id",
             "table_referential": "QUANT_work..INDEX_REFERENTIAL",
             "table_data_dictionary": "None",
             "table_fields": "value"
         },
         "table_2": {
             "table_name": "QUANT_work..INDEX_COMPOSITION",
             "table_update_frequency": "EBDOM",
             "table_perimeter_type": "fixed",
             "table_perimeter": [109, 110, 111, 112, 113, 114, 115, 116, 117, 118, 119, 120, 133, 134, 135, 136, 137, 138],
             "table_perimeter_field": "index_id",
             "table_referential": "QUANT_work..INDEX_REFERENTIAL",
             "table_data_dictionary": "None",
             "table_fields": "SECURITYRATIO"
             
         }
     },
    "FAMILY_BUSINESS": {
        "responsible": "tle",
        "table_1": {
            "table_name": "QUANT_work..INDEX_LEVEL",
            "table_update_frequency": "EBDOM",
            "table_referential": "QUANT_work..INDEX_REFERENTIAL",
            "table_data_dictionary": "None",
            "table_perimeter_field": "index_id",
            "table_perimeter_type": "fixed",
            "table_perimeter": [91, 92, 93, 94, 146, 148],
            "table_fields": "value"
        },
        "table_2": {
            "table_name": "QUANT_work..INDEX_COMPOSITION",
            "table_update_frequency": "ADHOC",
            "table_referential": "QUANT_work..INDEX_REFERENTIAL",
            "table_data_dictionary": "None",
            "table_perimeter_field": "index_id",
            "table_perimeter_type": "fixed",
            "table_perimeter": [91, 93]
        }
    },
    "FACTOR_SENTIMENT": {
        "responsible": "tle",
            "table_1": {
            "table_name": "QUANT_work..factor_stock_indicator",
            "table_update_frequency": "QKECH",
            "table_perimeter_type": "KC_plus_index",
            "table_perimeter": "SXXP",
            "table_perimeter_field": "security_id",
            "table_referential": "KGR..HISTO_SECURITY_QUANT",
            "table_data_dictionary": "QUANT_work..factor_data_dictionary",
            "table_fields": "value",
            "table_date_field": "date",
            "table_object_field": "security_id",
            "table_indicator_field": "indicator_id",
            "table_data_dictionary_readable_name": "name"
            
        }
        ,
        "client_output_table": "table_1",
        "client_output_override": "None"
    }
}