{
  "PROD_SERVER": "KECH-DB03:1447",
  "CRYSTAL_UAT_SERVER": "KECH-DB02-UAT:1433",
  "MATLAB_SERVER": "172.29.53.178:3306",
  "FLEXPORT_SERVER": "KECH-DB04:1447",
  "MATLAB_LOGIN": {
    "admin": "Paris4ever!!"
  },
  "PROD_LOGIN" : {
  "quant-bitbucket" : "Welcome2022!"
  },
  "REPOSITORY_DB": "KGR",
  "MARKET_DATA_DB": "MARKET_DATA",
  "QUANT_DB": "QUANT",
  "CRYSTAL_DB": "Crystal",
  "FLEXPORT_DB": "FLEX_EXPORT",
  "TIMEOUT": 1000
}
