{
	"FUNDAMENTAL_DATA_STOCK": {
        "responsible": "tle",
            "table_name": "QUANT_work..FUNDAMENTAL_DATA_STOCK",
            "table_update_frequency": "EOM",
            "table_referential": "KGR..HISTO_SECURITY_QUANT",
            "table_data_dictionary": "QUANT_work..FUNDAMENTAL_DATA_DICTIONARY",
			"reference_ticker":"fundamental_ticker",
            "table_perimeter_type": "dynamic",
			"table_perimeter": "LCXP",
			"table_perimeter_field": "security_id",
            "table_field": "value",
            "table_date_field":"DATE",
			"table_columns":["DATE", "security_id", "attribute_id", "value", "insert_date"],
			"start_date_default":"20200101",
			"data_source":{
				"source_name":"Bloomberg",
				"security_type": "Equity",
				"data_spec": {
					"eps_1gy": {
						"data_frequence":"DAILY",
						"function": "EndOfDayBbg",
						"field": ["BEST_EPS"],
						"currency": "local",
						"overrides": {
							"BEST_FPERIOD_OVERRIDE": "1GY"
						},
						"setParams": {
							"adjustmentNormal": false,
							"adjustmentAbnormal": false,
							"adjustmentSplit": false
						}
					},
					"eps_2gy": {
						"data_frequence":"DAILY",
						"function": "EndOfDayBbg",
						"field": ["BEST_EPS"],
						"currency": "local",
						"overrides": {
							"BEST_FPERIOD_OVERRIDE": "2GY"
						},
						"setParams": {
							"adjustmentNormal": false,
							"adjustmentAbnormal": false,
							"adjustmentSplit": false
						}
					},
					"eps_3gy": {
						"data_frequence":"DAILY",
						"function": "EndOfDayBbg",
						"field": ["BEST_EPS"],
						"currency": "local",
						"overrides": {
							"BEST_FPERIOD_OVERRIDE": "3GY"
						},
						"setParams": {
							"adjustmentNormal": false,
							"adjustmentAbnormal": false,
							"adjustmentSplit": false
						}
					},
					"eps_bf": {
						"data_frequence":"DAILY",
						"function": "EndOfDayBbg",
						"field": ["BEST_EPS"],
						"currency": "local",
						"overrides": {
							"BEST_FPERIOD_OVERRIDE": "BF"
						},
						"setParams": {
							"adjustmentNormal": false,
							"adjustmentAbnormal": false,
							"adjustmentSplit": false
						}
					},
					"eps_2bf": {
						"data_frequence":"DAILY",
						"function": "EndOfDayBbg",
						"field": ["BEST_EPS"],
						"currency": "local",
						"overrides": {
							"BEST_FPERIOD_OVERRIDE": "2BF"
						},
						"setParams": {
							"adjustmentNormal": false,
							"adjustmentAbnormal": false,
							"adjustmentSplit": false
						}
					}				
				}
			}
	},
	
	"FUNDAMENTAL_DATA_STOCK_daily": {
		"responsible": "tle",
		"table_name": "QUANT_work..FUNDAMENTAL_DATA_STOCK",
		"table_update_frequency": "EOM",
		"table_referential": "KGR..HISTO_SECURITY_QUANT",
		"table_data_dictionary": "QUANT_work..FUNDAMENTAL_DATA_DICTIONARY",
		"reference_ticker":"fundamental_ticker",
		"table_perimeter_type": "dynamic",
		"table_perimeter": "LCXP",
		"table_perimeter_field": "security_id",
		"table_field": "value",
		"table_date_field":"DATE",
		"table_columns":["DATE", "security_id", "attribute_id", "value", "insert_date"],
		"start_date_default":"20200101",
		"data_source":{
			"source_name":"Bloomberg",
			"security_type": "Equity",
			"data_spec": {
				"eps_1gy": {
					"data_frequence":"DAILY",
					"function": "EndOfDayBbg",
					"field": ["BEST_EPS"],
					"currency": "local",
					"overrides": {
						"BEST_FPERIOD_OVERRIDE": "1GY"
					},
					"setParams": {
						"adjustmentNormal": false,
						"adjustmentAbnormal": false,
						"adjustmentSplit": false
					}
				},
				"eps_2gy": {
					"data_frequence":"DAILY",
					"function": "EndOfDayBbg",
					"field": ["BEST_EPS"],
					"currency": "local",
					"overrides": {
						"BEST_FPERIOD_OVERRIDE": "2GY"
					},
					"setParams": {
						"adjustmentNormal": false,
						"adjustmentAbnormal": false,
						"adjustmentSplit": false
					}
				},
				"eps_3gy": {
					"data_frequence":"DAILY",
					"function": "EndOfDayBbg",
					"field": ["BEST_EPS"],
					"currency": "local",
					"overrides": {
						"BEST_FPERIOD_OVERRIDE": "3GY"
					},
					"setParams": {
						"adjustmentNormal": false,
						"adjustmentAbnormal": false,
						"adjustmentSplit": false
					}
				},
				"eps_bf": {
					"data_frequence":"DAILY",
					"function": "EndOfDayBbg",
					"field": ["BEST_EPS"],
					"currency": "local",
					"overrides": {
						"BEST_FPERIOD_OVERRIDE": "BF"
					},
					"setParams": {
						"adjustmentNormal": false,
						"adjustmentAbnormal": false,
						"adjustmentSplit": false
					}
				},
				"eps_2bf": {
					"data_frequence":"DAILY",
					"function": "EndOfDayBbg",
					"field": ["BEST_EPS"],
					"currency": "local",
					"overrides": {
						"BEST_FPERIOD_OVERRIDE": "2BF"
					},
					"setParams": {
						"adjustmentNormal": false,
						"adjustmentAbnormal": false,
						"adjustmentSplit": false
					}
				}				
			}
		}
	},
	
	"FUNDAMENTAL_DATA_STOCK_draft_to_complete_vers_2": {
		"data_source": {
			"source_name": "Bloomberg",
			"security_type": "Equity",
			"data_spec": {
				"mcap": {
					"data_frequence":"WEEKLY_PLUS_EOM",
					"function": "EndOfDayBbg",
					"field": ["CUR_MKT_CAP"],
					"overrides": {},
					"setParams": {
						"currency": "EUR",
						"adjustmentNormal": false,
						"adjustmentAbnormal": false,
						"adjustmentSplit": false
					}
				},
				"bps_bf": {
					"data_frequence":"WEEKLY_PLUS_EOM",
					"function": "EndOfDayBbg",
					"field": ["BEST_BPS"],
					"overrides": {
						"BEST_FPERIOD_OVERRIDE": "BF"
					},
					"setParams": {
						"adjustmentNormal": false,
						"adjustmentAbnormal": false,
						"adjustmentSplit": false
					}
				},
				"eps_std_bf": {
					"data_frequence":"WEEKLY",
					"function": "EndOfDayBbg",
					"field": ["BEST_EPS_STDDEV"],
					"overrides": {
						"BEST_FPERIOD_OVERRIDE": "BF"
					},
					"setParams": {
						"adjustmentNormal": false,
						"adjustmentAbnormal": false,
						"adjustmentSplit": false
					}
				},
				"eps_std_1gy": {
					"data_frequence":"WEEKLY",
					"function": "EndOfDayBbg",
					"field": ["BEST_EPS_STDDEV"],
					"overrides": {
						"BEST_FPERIOD_OVERRIDE": "1GY"
					},
					"setParams": {
						"adjustmentNormal": false,
						"adjustmentAbnormal": false,
						"adjustmentSplit": false
					}
				},
				"eps_std_2gy": {
					"data_frequence":"WEEKLY",
					"function": "EndOfDayBbg",
					"field": ["BEST_EPS_STDDEV"],
					"overrides": {
						"BEST_FPERIOD_OVERRIDE": "2GY"
					},
					"setParams": {
						"adjustmentNormal": false,
						"adjustmentAbnormal": false,
						"adjustmentSplit": false
					}
				},
				"roe_bf": {
					"data_frequence":"WEEKLY_PLUS_EOM",
					"function": "EndOfDayBbg",
					"field": ["BEST_ROE"],
					"overrides": {
						"BEST_FPERIOD_OVERRIDE": "BF"
					},
					"setParams": {
						"adjustmentNormal": false,
						"adjustmentAbnormal": false,
						"adjustmentSplit": false
					}
				},
				"earn_yield": {
					"data_frequence":"WEEKLY",
					"function": "EndOfDayBbg",
					"field": ["EARN_YLD"],
					"overrides": {},
					"setParams": {
						"adjustmentNormal": false,
						"adjustmentAbnormal": false,
						"adjustmentSplit": false
					}
				},
				"p/b": {
					"data_frequence":"WEEKLY",
					"function": "EndOfDayBbg",
					"field": ["PX_TO_BOOK_RATIO"],
					"overrides": {},
					"setParams": {
						"adjustmentNormal": false,
						"adjustmentAbnormal": false,
						"adjustmentSplit": false
					}
				},
				"p/s": {
					"data_frequence":"WEEKLY",
					"function": "EndOfDayBbg",
					"field": ["PX_TO_SALES_RATIO"],
					"overrides": {},
					"setParams": {
						"adjustmentNormal": false,
						"adjustmentAbnormal": false,
						"adjustmentSplit": false
					}
				},
				"common_eqy": {
					"data_frequence":"WEEKLY",
					"function": "EndOfDayBbg",
					"field": ["TOT_COMMON_EQY"],
					"overrides": {},
					"setParams": {
						"adjustmentNormal": false,
						"adjustmentAbnormal": false,
						"adjustmentSplit": false
					}
				},
				"debt/common_eqy": {
					"data_frequence":"WEEKLY",
					"function": "EndOfDayBbg",
					"field": ["TOT_DEBT_TO_COM_EQY"],
					"overrides": {},
					"setParams": {
						"adjustmentNormal": false,
						"adjustmentAbnormal": false,
						"adjustmentSplit": false
					}
				}
				
			}
		}
	}
}
