{
	"table_data": "FUNDAMENTAL_DATA_STOCK",
	"table_dictionary": "FUNDAMENTAL_DATA_DICTIONARY",
	"data": {
		"eps_1gy": {
			"fields": ["BEST_EPS"],
			"overrides": {
				"BEST_FPERIOD_OVERRIDE": "1GY"
			},
			"setParams": {
				"adjustmentNormal": false,
				"adjustmentAbnormal": false,
				"adjustmentSplit": true,
				"periodicitySelection": "WEEKLY"
			}
		},
		"eps_2gy": {
			"fields": ["BEST_EPS"],
			"overrides": {
				"BEST_FPERIOD_OVERRIDE": "2GY"
			},
			"setParams": {
				"adjustmentNormal": false,
				"adjustmentAbnormal": false,
				"adjustmentSplit": true,
				"periodicitySelection": "WEEKLY"
			}
		},
		"eps_3gy": {
			"fields": ["BEST_EPS"],
			"overrides": {
				"BEST_FPERIOD_OVERRIDE": "3GY"
			},
			"setParams": {
				"adjustmentNormal": false,
				"adjustmentAbnormal": false,
				"adjustmentSplit": true,
				"periodicitySelection": "WEEKLY"
			}
		},
		"eps_bf": {
			"fields": ["BEST_EPS"],
			"overrides": {
				"BEST_FPERIOD_OVERRIDE": "BF"
			},
			"setParams": {
				"adjustmentNormal": false,
				"adjustmentAbnormal": false,
				"adjustmentSplit": true,
				"periodicitySelection": "WEEKLY"
			}
		},
		"eps_2bf": {
			"fields": ["BEST_EPS"],
			"overrides": {
				"BEST_FPERIOD_OVERRIDE": "2BF"
			},
			"setParams": {
				"adjustmentNormal": false,
				"adjustmentAbnormal": false,
				"adjustmentSplit": true,
				"periodicitySelection": "WEEKLY"
			}
		}
	}
}
