{
	"sector_map" : {
			"Communication Services":"Comm Svcs",
			"Consumer Staples":"Cons Staples",
			"Consumer Discretionary":"Cons Discr",
			"Information Technology":"Info Tech"
			},

	"capi_map" : {
			   -1 : "Smallest",
			   0 : "Large",
			   1 : "Mid",
			   2 : "Small"
			   },
				   
				   
				   
	"style_gv_map" : {
				 1 : "Growth",
				 0 : "Value",
				 -1 : "Other"
				},

	"country_name_map" : {
					"Paris" : "France",
					"Xetra" : "Germany",
					"Milan" : "Italy",
					"Vienna" : "Austria",
					"Hong Kong" : "Hong Kong",
					"Nasdaq" : "US",
					"NYSE" : "US",
					"Stockholm" : "Sweden",
					"Swiss" : "Switzerland",
					"Madrid" : "Spain",
					"Brussels" : "Belgium",
					"London" : "UK",
					"Amsterdam" : "Netherlands",
					"Dublin" : "Ireland",
					"Warsaw" : "Poland",
					"Toronto" : "Canada",
					"Copenhagen" : "Denmark",
					"Oslo" : "Norway",
					"Athens" : "Greece",
					"Lisbon" : "Portugal",
					"Francfort" : "Germany",
					"Bucharest" : "Romania",
					"Helsinki" : "Finland",
					"Prague": "Czech",
					"Luxembourg": "Luxembourg",
					"Budapest": "Hungary",
					"Abu Dhabi":"United Arab Emirates"
					},
					
	"country_iso" : {
        "AD": "Andorra",
        "AE": "United Arab Emirates",
        "AL": "Albania",
        "AN": "Netherlands Antilles",
        "AR": "Argentina",
        "AT": "Austria",
        "AU": "Australia",
        "AX": "Land Islands",
        "BD": "Bangladesh",
        "BE": "Belgium",
        "BG": "Bulgaria",
        "BH": "Bahrain",
        "BM": "Bermuda",
        "BR": "Brazil",
        "BS": "Bahamas",
        "CA": "Canada",
        "CC": "Cocos (Keeling) Islands",
        "CH": "Switzerland",
        "CL": "Chile",
        "CN": "China",
        "CO": "Colombia",
        "CY": "Cyprus",
        "CZ": "Czech Republic",
        "DE": "Germany",
        "DJ": "Djibouti",
        "DK": "Denmark",
        "DZ": "Algeria",
        "EE": "Estonia",
        "EG": "Egypt",
        "ES": "Spain",
        "FI": "Finland",
        "FR": "France",
        "GA": "Gabon",
        "GB": "United Kingdom",
        "GE": "Georgia",
        "GG": "Guernsey",
        "GI": "Gibraltar",
        "GP": "Guadeloupe",
        "GR": "Greece",
        "HK": "Hong Kong",
        "HR": "Croatia",
        "HU": "Hungary",
        "ID": "Indonesia",
        "IE": "Ireland",
        "IL": "Israel",
        "IM": "Isle of Man",
        "IN": "India",
        "IR": "Iran",
        "IS": "Iceland",
        "IT": "Italy",
        "JE": "Jersey",
        "JP": "Japan",
        "KP": "North Korea",
        "KR": "South Korea",
        "KW": "Kuwait",
        "KY": "Cayman Islands",
        "LB": "Lebanon",
        "LI": "Liechtenstein",
        "LT": "Lithuania",
        "LU": "Luxembourg",
        "LV": "Latvia",
        "LY": "Libya",
        "MA": "Morocco",
        "MC": "Monaco",
        "ME": "Montenegro",
        "MG": "Madagascar",
        "MP": "Northern Mariana Islands",
        "MT": "Malta",
        "MU": "Mauritius",
        "MX": "Mexico",
        "MY": "Malaysia",
        "NE": "Niger",
        "NL": "Netherlands",
        "NO": "Norway",
        "NZ": "New Zealand",
        "OM": "Oman",
        "PA": "Panama",
        "PE": "Peru",
        "PF": "French Polynesia",
        "PH": "Philippines",
        "PL": "Poland",
        "PR": "Puerto Rico",
        "PT": "Portugal",
        "QA": "Qatar",
        "RO": "Romania",
        "RS": "Serbia",
        "RU": "Russia",
        "SA": "Saudi Arabia",
        "SC": "Seychelles",
        "SE": "Sweden",
        "SG": "Singapore",
        "SI": "Slovenia",
        "SK": "Slovakia",
        "SM": "San Marino",
        "SN": "Senegal",
        "SZ": "Swaziland",
        "TC": "Turks and Caicos Islands",
        "TH": "Thailand",
        "TR": "Turkey",
        "TW": "Taiwan",
        "UA": "Ukraine",
        "US": "United States",
        "UY": "Uruguay",
        "VG": "British Virgin Islands",
        "VI": "U.S. Virgin Islands",
        "XX": "Unknown",
        "YE": "Yemen",
        "ZA": "South Africa"
    },

	"zone_map" : {
				 1 : "Europe",
				 2 : "US",
				 3 : "Asia"
				},

	
	"reference_columns" : {
						"primary_trading_destination_id": "PRIM_TD_ID",
						"fundamental_ticker": "fund_ticker",
						"icb_industry_name": "icb_industry",
						"icb_supersector_name": "icb_supersector",
						"icb_sector_name": "icb_sector",
						"icb_subsector_name": "icb_subsector",
						"codebloomberg": "ticker",
						"BEGIN_DATE":"begin_date",
						"END_DATE":"end_date",
						"BEGIN_DATE_MIN": "begin_date_min",
						"END_DATE_MAX" : "end_date_max"
						},
		
	"reference_type_id" : {"BBG": 4,
						"RIC": 5,
						"KC_COMPANY_ID": 7,
						"STOXXID": 8,
						"FUND_TICKER": 9}
}