{
    "LEVEL_INDEX": {
            "table_name": "QUANT_work..INDEX_LEVEL",
            "table_update_frequency": "EOM",
            "table_referential": "QUANT_work..INDEX_REFERENTIAL",
            "table_data_dictionary": null,
            "table_perimeter_type": "fixed",
            "table_perimeter": [1, 2, 3, 4, 5, 6, 7, 8, 9, 10, 11, 12, 13, 14, 15,
								 16, 17, 18, 19, 20, 21, 22, 23, 24, 25, 26, 27, 28,
								 29, 30, 31, 32, 33, 34, 35, 36, 37, 38, 39, 40, 41,
								 42, 43, 44, 45, 46, 47, 48, 49, 50, 51, 52, 53, 54,
								 55, 56, 57, 58, 59, 60, 61, 62, 63, 64, 65, 66, 67,
								 68, 69, 70, 71, 72, 73, 74, 75, 76, 77, 78, 79, 80,
								 81, 82, 83, 87, 88, 89, 90, 149, 150],
			"reference_ticker":"index_ticker",
			"table_perimeter_field": "index_id",
            "table_field": "value",
			"table_date_field":"DATE",
			"table_columns":["DATE", "index_id", "value"],
			"start_date_default": "19980101",
			"data_source":{
				"source_name":"Bloomberg",
				"security_type": "Index",
				"data_spec": {
					"close_price":{
						"function":"EndOfDayBbg",
						"field" : ["PX_LAST"],
						"overrides":{},
						"setParams":{}
						}
											
				}
			}
    },
    "FUNDAMENTAL_DATA_INDEX": {
        "responsible": "ssureau",
		"table_name": "QUANT_work..FUNDAMENTAL_DATA_INDEX",
		"table_update_frequency": "EOM",
		"table_referential": "QUANT_work..INDEX_REFERENTIAL",
		"table_data_dictionary": "QUANT_work..FUNDAMENTAL_DATA_DICTIONARY",
		"table_perimeter_type": "fixed",
		"table_perimeter": [1,2,3,4,5,6,7,8,9,10,11,12,14,16,17,18,19,20,21,22,24,25,26,27,28,29,
        		30,31,32,33,34,35,36,37,38,39,40,41,42,43,44,45,46,47,48,49,50,51,52,53,54,55,56,57,76,77,78,79,
        		80,81,82,83,85,86,87,149,150,158,159],
		"reference_ticker":"index_ticker",
		"table_perimeter_field": "index_id",
		"table_field": "value",
		"table_date_field":"DATE",
		"table_columns":["DATE", "index_id", "attribute_id", "value"],
		"start_date_default":"20200101",
        "data_source":{
				"source_name":"Bloomberg",
				"security_type": "Index",
				"data_spec": {
					"eps_1gy": {
						"data_frequence":"DAILY",
						"function": "EndOfDayBbg",
						"field": ["BEST_EPS"],
						"currency": "local",
						"overrides": {
							"BEST_FPERIOD_OVERRIDE": "1GY"
    						},
						"setParams": {
							"adjustmentNormal": false,
							"adjustmentAbnormal": false,
							"adjustmentSplit": false
    						}
    					},
   					"eps_2gy": {
   						"data_frequence":"DAILY",
   						"function": "EndOfDayBbg",
   						"field": ["BEST_EPS"],
   						"currency": "local",
   						"overrides": {
   							"BEST_FPERIOD_OVERRIDE": "2GY"
           						},
   						"setParams": {
   							"adjustmentNormal": false,
   							"adjustmentAbnormal": false,
   							"adjustmentSplit": false
           						}
           					},
   					"eps_3gy": {
   						"data_frequence":"DAILY",
   						"function": "EndOfDayBbg",
   						"field": ["BEST_EPS"],
   						"currency": "local",
   						"overrides": {
   							"BEST_FPERIOD_OVERRIDE": "3GY"
           						},
   						"setParams": {
   							"adjustmentNormal": false,
   							"adjustmentAbnormal": false,
   							"adjustmentSplit": false
           						}
           					},
   					"eps_4gy": {
   						"data_frequence":"DAILY",
   						"function": "EndOfDayBbg",
   						"field": ["BEST_EPS"],
   						"currency": "local",
   						"overrides": {
   							"BEST_FPERIOD_OVERRIDE": "4GY"
           						},
   						"setParams": {
   							"adjustmentNormal": false,
   							"adjustmentAbnormal": false,
   							"adjustmentSplit": false
           						}
           					},
   					"eps_5gy": {
   						"data_frequence":"DAILY",
   						"function": "EndOfDayBbg",
   						"field": ["BEST_EPS"],
   						"currency": "local",
   						"overrides": {
   							"BEST_FPERIOD_OVERRIDE": "5GY"
           						},
   						"setParams": {
   							"adjustmentNormal": false,
   							"adjustmentAbnormal": false,
   							"adjustmentSplit": false
           						}
           					},
   					"eps_bf": {
   						"data_frequence":"DAILY",
   						"function": "EndOfDayBbg",
   						"field": ["BEST_EPS"],
   						"currency": "local",
   						"overrides": {
   							"BEST_FPERIOD_OVERRIDE": "BF"
       						},
   						"setParams": {
   							"adjustmentNormal": false,
   							"adjustmentAbnormal": false,
   							"adjustmentSplit": false
       						}
       					},
   					"eps_2bf": {
   						"data_frequence":"DAILY",
   						"function": "EndOfDayBbg",
   						"field": ["BEST_EPS"],
   						"currency": "local",
   						"overrides": {
   							"BEST_FPERIOD_OVERRIDE": "2BF"
       						},
   						"setParams": {
   							"adjustmentNormal": false,
   							"adjustmentAbnormal": false,
   							"adjustmentSplit": false
       						}                
        					}
        			}
        		}
    },
    "FUNDAMENTAL_DATA_STOCK": {
        "responsible": "tle",
            "table_name": "QUANT_work..FUNDAMENTAL_DATA_STOCK",
            "table_update_frequency": "EOM",
            "table_referential": "KGR..HISTO_SECURITY_QUANT",
            "table_data_dictionary": "QUANT_work..FUNDAMENTAL_DATA_DICTIONARY",
			"reference_ticker":"fundamental_ticker",
            "table_perimeter_type": "dynamic",
			"table_perimeter": "LCXP",
			"table_perimeter_field": "security_id",
            "table_field": "value",
            "table_date_field":"DATE",
			"table_columns":["DATE", "security_id", "attribute_id", "value", "insert_date"],
			"start_date_default":"19980101",
			"data_source":{
				"source_name":"Bloomberg",
				"security_type": "Equity",
				"data_spec": {
					"eps_1gy": {
						"data_frequence":"DAILY",
						"function": "EndOfDayBbg",
						"field": ["BEST_EPS"],
						"currency": "local",
						"overrides": {
							"BEST_FPERIOD_OVERRIDE": "1GY"
						},
						"setParams": {
							"adjustmentNormal": false,
							"adjustmentAbnormal": false,
							"adjustmentSplit": false
						}
					},
					"eps_2gy": {
						"data_frequence":"DAILY",
						"function": "EndOfDayBbg",
						"field": ["BEST_EPS"],
						"currency": "local",
						"overrides": {
							"BEST_FPERIOD_OVERRIDE": "2GY"
						},
						"setParams": {
							"adjustmentNormal": false,
							"adjustmentAbnormal": false,
							"adjustmentSplit": false
						}
					},
					"eps_3gy": {
						"data_frequence":"DAILY",
						"function": "EndOfDayBbg",
						"field": ["BEST_EPS"],
						"currency": "local",
						"overrides": {
							"BEST_FPERIOD_OVERRIDE": "3GY"
						},
						"setParams": {
							"adjustmentNormal": false,
							"adjustmentAbnormal": false,
							"adjustmentSplit": false
						}
					},
					"eps_bf": {
						"data_frequence":"DAILY",
						"function": "EndOfDayBbg",
						"field": ["BEST_EPS"],
						"currency": "local",
						"overrides": {
							"BEST_FPERIOD_OVERRIDE": "BF"
						},
						"setParams": {
							"adjustmentNormal": false,
							"adjustmentAbnormal": false,
							"adjustmentSplit": false
						}
					},
					"eps_2bf": {
						"data_frequence":"DAILY",
						"function": "EndOfDayBbg",
						"field": ["BEST_EPS"],
						"currency": "local",
						"overrides": {
							"BEST_FPERIOD_OVERRIDE": "2BF"
						},
						"setParams": {
							"adjustmentNormal": false,
							"adjustmentAbnormal": false,
							"adjustmentSplit": false
						}
					}				
				}
			}
	}
}