{
	"ffill_specs": {"eps_1gy": {"ffill_function": "fixed_ffill_limit",
                            	"ffill_max_nb":"6"},
                    	"eps_2gy": {"ffill_function": "fixed_ffill_limit",
                            	"ffill_max_nb":"6"},
                    	"eps_3gy": {"ffill_function": "fixed_ffill_limit",
                            	"ffill_max_nb":"6"},
                    	"eps_bf": {"ffill_function": "fixed_ffill_limit",
                            	"ffill_max_nb":"6"},
                    	"eps_2bf": {"ffill_function": "fixed_ffill_limit",
                            	"ffill_max_nb":"6"}, 
                    	"turnover": {"ffill_function": "fixed_ffill_limit",
                            	"ffill_max_nb":"0"}
        	}
}
